{
    "appName": "suituppinpoint",
    "roleName": "pinpointLambdaRole7395918d",
    "cloudWatchPolicyName": "cloudWatchPolicy7395918d",
    "pinpointPolicyName": "pinpointPolicy7395918d",
    "authPolicyName": "pinpoint_amplify_7395918d",
    "unauthPolicyName": "pinpoint_amplify_7395918d",
    "authRoleName": {
        "Ref": "AuthRoleName"
    },
    "unauthRoleName": {
        "Ref": "UnauthRoleName"
    },
    "authRoleArn": {
        "Fn::GetAtt": [
            "AuthRole",
            "Arn"
        ]
    }
}