// Jest Snapshot v1, https://goo.gl/fbAQLP

exports[`Initialize Container --- Shallow Render +++ SNAPSHOT InitializeContainer +++ 1`] = `
<View
  style={
    Array [
      Object {
        "alignItems": "center",
        "backgroundColor": "#000000",
        "flex": 1,
        "justifyContent": "center",
      },
    ]
  }
>
  <Image
    resizeMode="contain"
    source={
      Object {
        "testUri": "../../../src/static/images/suitup_512x512.png",
      }
    }
    style={
      Object {
        "width": 686,
      }
    }
  />
</View>
`;
